Trabalhos sobre Tendência e Sazonalidade
…
- Considere o seguinte modelo de decomposição: `\(Z_t = T_t + S_t + a_t\)`,

- Para estimar, vou usar o método de média móveis, pois, não consigo visualizar qualquer função matemática que relacione o consumo das vendas com o tempo. 

- Vou experimentar aqui alguns valores ad hoc para `\(n\)`: `\(\left\{3,7,13\right\}\)`. 

- Não vou utilizar critério de Erro Quadrático Médio, pois, minha intenção é estimar a tendência e, não, necessariamente fazer a previsão.

---
class: middle
#Estimar Tendência 

```
## # A tibble: 144 x 5
##    data       consumo mm3      mm7      mm13    
##    <date>       <dbl> <ts>     <ts>     <ts>    
##  1 1984-01-01    114.       NA       NA       NA
##  2 1984-02-01    111. 113.7933       NA       NA
##  3 1984-03-01    116. 112.9400       NA       NA
##  4 1984-04-01    112. 116.2300 116.5757       NA
##  5 1984-05-01    121. 117.7933 118.4171       NA
##  6 1984-06-01    121. 121.0267 121.0243       NA
##  7 1984-07-01    121. 123.1467 123.4300 125.8477
##  8 1984-08-01    127. 125.7767 126.1486 125.8415
##  9 1984-09-01    129. 129.7867 134.5386 127.3654
## 10 1984-10-01    133. 130.9800 134.4657 127.5038
## # … with 134 more rows
```
…
- Como vimos na aula, considerando o modelo de decomposição

`$$Z_t = T_t + S_t + a_t,$$`

ao estimarmos `\(T_t\)`, por meio de `\(\hat{T}_t\)`, teremos uma série residual `\(Y_t = Z_t - \hat{T}_t.\)` Esta série fornecerá meios para estimar `\(S_t\)`.

---
class: middle
#Estimar Sazonalidade

- Primeiro passo, obter as séries residuais

```
## # A tibble: 144 x 5
##    data       consumo   mes tend     residuo 
##    <date>       <dbl> <dbl> <ts>     <ts>    
##  1 1984-01-01    114.     1       NA       NA
##  2 1984-02-01    111.     2       NA       NA
##  3 1984-03-01    116.     3       NA       NA
##  4 1984-04-01    112.     4       NA       NA
##  5 1984-05-01    121.     5       NA       NA
##  6 1984-06-01    121.     6       NA       NA
##  7 1984-07-01    121.     7       NA       NA
##  8 1984-08-01    127.     8 125.3780 1.642000
##  9 1984-09-01    129.     9 125.6533 3.386667
## 10 1984-10-01    133.    10 127.9700 5.330000
## # … with 134 more rows
```
…
